ej1/VCD/adder.vcd
$date
	Tue May 11 23:35:45 2021
$end
$version
	Icarus Verilog
$end
$timescale
	1ps
$end
$scope module top $end
$var wire 1 ! \$1 $end
$var wire 1 " \$11 $end
$var wire 1 # \$13 $end
$var wire 1 $ \$15 $end
$var wire 1 % \$17 $end
$var wire 1 & \$19 $end
$var wire 6 ' \$21 [5:0] $end
$var wire 1 ( \$24 $end
$var wire 1 ) \$26 $end
$var wire 1 * \$28 $end
$var wire 1 + \$3 $end
$var wire 1 , \$30 $end
$var wire 1 - \$5 $end
$var wire 1 . \$7 $end
$var wire 1 / \$9 $end
$var wire 5 0 a__data [4:0] $end
$var wire 1 1 a__valid $end
$var wire 5 2 b__data [4:0] $end
$var wire 1 3 b__valid $end
$var wire 1 4 clk $end
$var wire 1 5 r__ready $end
$var wire 1 6 rst $end
$var wire 6 7 \$22 [5:0] $end
$var reg 1 8 a__ready $end
$var reg 1 9 aux $end
$var reg 1 : b__ready $end
$var reg 5 ; r__data [4:0] $end
$var reg 5 < \r__data$next [4:0] $end
$var reg 1 = r__valid $end
$var reg 1 > \r__valid$next $end
$upscope $end
$enddefinitions $end
#0
$dumpvars
0>
0=
b0 <
b0 ;
0:
09
08
bx 7
16
z5
14
z3
bz 2
z1
bz 0
0/
0.
0-
0,
0+
x*
0)
x(
bx '
x&
x%
x$
x#
0"
0!
$end
#5000
04
#10000
06
11
b1 0
14
#15000
04
#20000
1>
1/
1-
1.
1+
1:
18
1,
1)
19
b11 <
1$
1&
1#
1%
1(
1*
13
b11 '
b11 7
b10 2
15
14
#25000
04
#30000
b100 <
b100 '
b100 7
b10 0
19
1>
1!
1"
1=
b11 ;
14
#35000
04
#40000
b101 <
b101 '
b101 7
b11 0
b100 ;
14
#45000
04
#50000
b110 <
b110 '
b110 7
b100 0
b101 ;
14
#55000
04
#60000
b111 <
b111 '
b111 7
b101 0
b110 ;
14
#65000
04
#70000
b1000 <
b1000 '
b1000 7
b110 0
b111 ;
14
#75000
04
#80000
b1001 <
b1001 '
b1001 7
b111 0
b1000 ;
14
#85000
04
#90000
b1010 <
b1010 '
b1010 7
b1000 0
b1001 ;
14
#95000
04
#100000
b1011 <
b1011 '
b1011 7
b1001 0
b1010 ;
14
#105000
04
#110000
b1100 <
b1100 '
b1100 7
b1010 0
b1011 ;
14
#115000
04
#120000
b1101 <
b1101 '
b1101 7
b1011 0
b1100 ;
14
#125000
04
#130000
b1110 <
b1110 '
b1110 7
b1100 0
b1101 ;
14
#135000
04
#140000
b1111 <
b1111 '
b1111 7
b1101 0
b1110 ;
14
#145000
04
#150000
b10000 <
b10000 '
b10000 7
b1110 0
b1111 ;
14
#155000
04
#160000
b10001 <
b10001 '
b10001 7
b1111 0
b10000 ;
14
#165000
04
#170000
b10010 <
b10010 '
b10010 7
b10000 0
b10001 ;
14
#175000
04
#180000
b10011 <
b10011 '
b10011 7
b10001 0
b10010 ;
14
#185000
04
#190000
b10100 <
b10100 '
b10100 7
b10010 0
b10011 ;
14
#195000
04
#200000
b10101 <
b10101 '
b10101 7
b10011 0
b10100 ;
14
#205000
04
#210000
b10110 <
b10110 '
b10110 7
b10100 0
b10101 ;
14
#215000
04
#220000
b10111 <
b10111 '
b10111 7
b10101 0
b10110 ;
14
#225000
04
#230000
b11000 <
b11000 '
b11000 7
b10110 0
b10111 ;
14
#235000
04
#240000
b11001 <
b11001 '
b11001 7
b10111 0
b11000 ;
14
#245000
04
#250000
b11010 <
b11010 '
b11010 7
b11000 0
b11001 ;
14
#255000
04
#260000
b11011 <
b11011 '
b11011 7
b11001 0
b11010 ;
14
#265000
04
#270000
b11100 <
b11100 '
b11100 7
b11010 0
b11011 ;
14
#275000
04
#280000
b11101 <
b11101 '
b11101 7
b11011 0
b11100 ;
14
#285000
04
#290000
b11110 <
b11110 '
b11110 7
b11100 0
b11101 ;
14
#295000
04
#300000
b11111 <
b11111 '
b11111 7
b11101 0
b11110 ;
14
#305000
04
#310000
b0 <
b100000 '
b100000 7
b11110 0
b11111 ;
14
#315000
04
#320000
b1 <
b100001 '
b100001 7
b11111 0
b0 ;
14
#325000
04
#330000
09
08
0:
0>
0-
0$
0&
0)
0,
0/
0+
0#
0%
0(
0*
0.
01
03
b1 ;
14
#335000
04
#340000
05
0!
0"
0=
14
#345000
04
#350000
14
#355000
04
#360000
13
b100000 '
b100000 7
b1 2
14
#365000
04
#370000
1>
1/
1-
1.
1+
1:
18
1,
1)
19
b11 <
1$
1&
1#
1%
1(
1*
11
b11 '
b11 7
b10 0
15
14
#375000
04
#380000
b100 <
b100 '
b100 7
b10 2
19
1>
1!
1"
b11 ;
1=
14
#385000
04
#390000
b101 <
b101 '
b101 7
b11 2
b100 ;
14
#395000
04
#400000
b110 <
b110 '
b110 7
b100 2
b101 ;
14
#405000
04
#410000
b111 <
b111 '
b111 7
b101 2
b110 ;
14
#415000
04
#420000
b1000 <
b1000 '
b1000 7
b110 2
b111 ;
14
#425000
04
#430000
b1001 <
b1001 '
b1001 7
b111 2
b1000 ;
14
#435000
04
#440000
b1010 <
b1010 '
b1010 7
b1000 2
b1001 ;
14
#445000
04
#450000
b1011 <
b1011 '
b1011 7
b1001 2
b1010 ;
14
#455000
04
#460000
b1100 <
b1100 '
b1100 7
b1010 2
b1011 ;
14
#465000
04
#470000
b1101 <
b1101 '
b1101 7
b1011 2
b1100 ;
14
#475000
04
#480000
b1110 <
b1110 '
b1110 7
b1100 2
b1101 ;
14
#485000
04
#490000
b1111 <
b1111 '
b1111 7
b1101 2
b1110 ;
14
#495000
04
#500000
b10000 <
b10000 '
b10000 7
b1110 2
b1111 ;
14
#505000
04
#510000
b10001 <
b10001 '
b10001 7
b1111 2
b10000 ;
14
#515000
04
#520000
b10010 <
b10010 '
b10010 7
b10000 2
b10001 ;
14
#525000
04
#530000
b10011 <
b10011 '
b10011 7
b10001 2
b10010 ;
14
#535000
04
#540000
b10100 <
b10100 '
b10100 7
b10010 2
b10011 ;
14
#545000
04
#550000
b10101 <
b10101 '
b10101 7
b10011 2
b10100 ;
14
#555000
04
#560000
b10110 <
b10110 '
b10110 7
b10100 2
b10101 ;
14
#565000
04
#570000
b10111 <
b10111 '
b10111 7
b10101 2
b10110 ;
14
#575000
04
#580000
b11000 <
b11000 '
b11000 7
b10110 2
b10111 ;
14
#585000
04
#590000
b11001 <
b11001 '
b11001 7
b10111 2
b11000 ;
14
#595000
04
#600000
b11010 <
b11010 '
b11010 7
b11000 2
b11001 ;
14
#605000
04
#610000
b11011 <
b11011 '
b11011 7
b11001 2
b11010 ;
14
#615000
04
#620000
b11100 <
b11100 '
b11100 7
b11010 2
b11011 ;
14
#625000
04
#630000
b11101 <
b11101 '
b11101 7
b11011 2
b11100 ;
14
#635000
04
#640000
b11110 <
b11110 '
b11110 7
b11100 2
b11101 ;
14
#645000
04
#650000
b11111 <
b11111 '
b11111 7
b11101 2
b11110 ;
14
#655000
04
#660000
b0 <
b100000 '
b100000 7
b11110 2
b11111 ;
14
#665000
04
#670000
b1 <
b100001 '
b100001 7
b11111 2
b0 ;
14
#675000
04
#680000
0>
09
08
0:
0/
0$
0&
0)
0,
0-
0.
0#
0%
0(
0*
0+
03
01
b1 ;
14
#685000
04
#690000
0!
0"
0=
14
