ej1/VCD/adder.vcd
$date
	Mon May 10 11:12:12 2021
$end
$version
	Icarus Verilog
$end
$timescale
	1ps
$end
$scope module top $end
$var wire 1 ! \$1 $end
$var wire 1 " \$10 $end
$var wire 1 # \$12 $end
$var wire 1 $ \$14 $end
$var wire 1 % \$16 $end
$var wire 1 & \$18 $end
$var wire 1 ' \$20 $end
$var wire 1 ( \$3 $end
$var wire 1 ) \$5 $end
$var wire 6 * \$7 [5:0] $end
$var wire 5 + a__data [4:0] $end
$var wire 1 , a__valid $end
$var wire 5 - b__data [4:0] $end
$var wire 1 . b__valid $end
$var wire 1 / clk $end
$var wire 1 0 r__ready $end
$var wire 1 1 rst $end
$var wire 6 2 \$8 [5:0] $end
$var reg 1 3 a__ready $end
$var reg 1 4 b__ready $end
$var reg 5 5 r__data [4:0] $end
$var reg 5 6 \r__data$next [4:0] $end
$var reg 1 7 r__valid $end
$var reg 1 8 \r__valid$next $end
$upscope $end
$enddefinitions $end
#0
$dumpvars
08
07
b0 6
b0 5
14
13
bx 2
11
z0
1/
z.
bz -
z,
bz +
bx *
x)
x(
1'
0&
1%
1$
0#
1"
0!
$end
#5000
0/
#10000
b11110 6
18
1(
1)
01
1,
b111110 *
b111110 2
b11111 +
1.
b11111 -
10
1/
#15000
0/
#20000
b0 6
b1010 +
b100000 *
b100000 2
b10110 -
18
1!
1&
0%
1#
0"
b11110 5
17
1/
#25000
0/
#30000
b11100 6
b11100 +
b11100 *
b11100 2
b0 -
b0 5
1/
#35000
0/
#40000
b111 6
b10000 +
b100111 *
b100111 2
b10111 -
b11100 5
1/
#45000
0/
#50000
b11001 6
b10001 +
b11001 *
b11001 2
b1000 -
b111 5
1/
#55000
0/
#60000
b10111 6
b10111 *
b10111 2
b110 -
b11001 5
1/
#65000
0/
#70000
b11101 6
b101 +
b11101 *
b11101 2
b11000 -
b10111 5
1/
#75000
0/
#80000
b1100 +
b11101 *
b11101 2
b10001 -
b11101 5
1/
#85000
0/
#90000
b1010 6
b10011 +
b101010 *
b101010 2
b10111 -
1/
#95000
0/
#100000
b1001 6
b10 +
b1001 *
b1001 2
b111 -
b1010 5
1/
#105000
0/
#110000
b10000 6
b1101 +
b10000 *
b10000 2
b11 -
b1001 5
1/
#115000
0/
#120000
b11011 6
b11111 +
b111011 *
b111011 2
b11100 -
b10000 5
1/
#125000
0/
#130000
b1110 6
b11000 +
b101110 *
b101110 2
b10110 -
b11011 5
1/
#135000
0/
#140000
b11 6
b10000 +
b100011 *
b100011 2
b10011 -
b1110 5
1/
#145000
0/
#150000
b0 6
b10011 +
b100000 *
b100000 2
b1101 -
b11 5
1/
#155000
0/
#160000
b10100 6
b10101 +
b110100 *
b110100 2
b11111 -
b0 5
1/
#165000
0/
#170000
b10110 6
b11 +
b10110 *
b10110 2
b10011 -
b10100 5
1/
#175000
0/
#180000
b11111 6
b0 +
b11111 *
b11111 2
b11111 -
b10110 5
1/
#185000
0/
#190000
b1000 6
b1111 +
b101000 *
b101000 2
b11001 -
b11111 5
1/
#195000
0/
#200000
b1010 6
b110 +
b1010 *
b1010 2
b100 -
b1000 5
1/
#205000
0/
#210000
b11001 6
b1000 +
b11001 *
b11001 2
b10001 -
b1010 5
1/
#215000
0/
#220000
b100 6
b101 +
b100100 *
b100100 2
b11111 -
b11001 5
1/
#225000
0/
#230000
b11101 6
b10110 +
b11101 *
b11101 2
b111 -
b100 5
1/
#235000
0/
#240000
b10001 6
b1 +
b10001 *
b10001 2
b10000 -
b11101 5
1/
#245000
0/
#250000
b10011 6
b1100 +
b10011 *
b10011 2
b111 -
b10001 5
1/
#255000
0/
#260000
b1 6
b1000 +
b100001 *
b100001 2
b11001 -
b10011 5
1/
#265000
0/
#270000
b1111 6
b1110 +
b1111 *
b1111 2
b1 -
b1 5
1/
#275000
0/
#280000
b11110 6
b11 +
b11110 *
b11110 2
b11011 -
b1111 5
1/
#285000
0/
#290000
b1010 6
b10 +
b1010 *
b1010 2
b1000 -
b11110 5
1/
#295000
0/
#300000
b11111 6
b11111 *
b11111 2
b10111 +
b1010 5
1/
#305000
0/
#310000
b10110 6
b110110 *
b110110 2
b11111 -
b11111 5
1/
#315000
0/
#320000
b1111 6
b11100 +
b101111 *
b101111 2
b10011 -
b10110 5
1/
#325000
0/
#330000
b11101 6
b1100 +
b11101 *
b11101 2
b10001 -
b1111 5
1/
#335000
0/
#340000
b0 6
b11000 +
b100000 *
b100000 2
b1000 -
b11101 5
1/
#345000
0/
#350000
b10001 6
b10010 +
b110001 *
b110001 2
b11111 -
b0 5
1/
#355000
0/
#360000
b1 6
b1101 +
b100001 *
b100001 2
b10100 -
b10001 5
1/
#365000
0/
#370000
b11100 6
b101 +
b11100 *
b11100 2
b10111 -
b1 5
1/
#375000
0/
#380000
b10000 6
b11010 +
b110000 *
b110000 2
b10110 -
b11100 5
1/
#385000
0/
#390000
b101 6
b11110 +
b100101 *
b100101 2
b111 -
b10000 5
1/
#395000
0/
#400000
b10101 6
b10 +
b10101 *
b10101 2
b10011 -
b101 5
1/
#405000
0/
#410000
b10100 6
b110 +
b10100 *
b10100 2
b1110 -
b10101 5
1/
#415000
0/
#420000
b10010 6
b10010 +
b10010 *
b10010 2
b0 -
b10100 5
1/
#425000
0/
#430000
b101 6
b10110 +
b100101 *
b100101 2
b1111 -
b10010 5
1/
#435000
0/
#440000
b1100 6
b1111 +
b101100 *
b101100 2
b11101 -
b101 5
1/
#445000
0/
#450000
b10110 6
b11100 +
b110110 *
b110110 2
b11010 -
b1100 5
1/
#455000
0/
#460000
b11110 6
b110 +
b11110 *
b11110 2
b11000 -
b10110 5
1/
#465000
0/
#470000
b101 6
b11100 +
b100101 *
b100101 2
b1001 -
b11110 5
1/
#475000
0/
#480000
b11101 6
b11001 +
b11101 *
b11101 2
b100 -
b101 5
1/
#485000
0/
#490000
b1011 6
b11100 +
b101011 *
b101011 2
b1111 -
b11101 5
1/
#495000
0/
#500000
b100 6
b110 +
b100100 *
b100100 2
b11110 -
b1011 5
1/
#505000
0/
#510000
b1011 6
b100 +
b1011 *
b1011 2
b111 -
b100 5
1/
#515000
0/
#520000
b110 6
b110 *
b110 2
b10 -
b1011 5
1/
#525000
0/
#530000
b10101 6
b11011 +
b110101 *
b110101 2
b11010 -
b110 5
1/
#535000
0/
#540000
b11111 6
b11110 +
b11111 *
b11111 2
b1 -
b10101 5
1/
#545000
0/
#550000
b1110 6
b11101 +
b101110 *
b101110 2
b10001 -
b11111 5
1/
#555000
0/
#560000
b1100 6
b10000 +
b101100 *
b101100 2
b11100 -
b1110 5
1/
#565000
0/
#570000
b11111 6
b11001 +
b11111 *
b11111 2
b110 -
b1100 5
1/
#575000
0/
#580000
b10000 6
b11111 +
b110000 *
b110000 2
b10001 -
b11111 5
1/
#585000
0/
#590000
b10111 6
b11101 +
b110111 *
b110111 2
b11010 -
b10000 5
1/
#595000
0/
#600000
b11101 6
b10101 +
b11101 *
b11101 2
b1000 -
b10111 5
1/
#605000
0/
#610000
b11 6
b101 +
b100011 *
b100011 2
b11110 -
b11101 5
1/
#615000
0/
#620000
b100 6
b11100 +
b100100 *
b100100 2
b1000 -
b11 5
1/
#625000
0/
#630000
b111 6
b100111 *
b100111 2
b11111 +
b100 5
1/
#635000
0/
#640000
b100 6
b1110 +
b100100 *
b100100 2
b10110 -
b111 5
1/
#645000
0/
#650000
b11000 6
b11 +
b11000 *
b11000 2
b10101 -
b100 5
1/
#655000
0/
#660000
b11111 6
b111 +
b11111 *
b11111 2
b11000 -
b11000 5
1/
#665000
0/
#670000
b10010 6
b11111 +
b110010 *
b110010 2
b10011 -
b11111 5
1/
#675000
0/
#680000
b1010 6
b11000 +
b101010 *
b101010 2
b10010 -
b10010 5
1/
#685000
0/
#690000
b1 6
b10001 +
b100001 *
b100001 2
b10000 -
b1010 5
1/
#695000
0/
#700000
b11111 6
b11111 *
b11111 2
b1111 +
b1 5
1/
#705000
0/
#710000
b11100 6
b10 +
b11100 *
b11100 2
b11010 -
b11111 5
1/
#715000
0/
#720000
b10000 6
b11011 +
b110000 *
b110000 2
b10101 -
b11100 5
1/
#725000
0/
#730000
b1011 6
b10100 +
b101011 *
b101011 2
b10111 -
b10000 5
1/
#735000
0/
#740000
b11 6
b11101 +
b100011 *
b100011 2
b110 -
b1011 5
1/
#745000
0/
#750000
b1100 6
b10011 +
b101100 *
b101100 2
b11001 -
b11 5
1/
#755000
0/
#760000
b1110 6
b101110 *
b101110 2
b11011 -
b1100 5
1/
#765000
0/
#770000
b101 6
b1 +
b101 *
b101 2
b100 -
b1110 5
1/
#775000
0/
#780000
b10000 6
b10 +
b10000 *
b10000 2
b1110 -
b101 5
1/
#785000
0/
#790000
b100 6
b11101 +
b100100 *
b100100 2
b111 -
b10000 5
1/
#795000
0/
#800000
b10100 6
b1010 +
b10100 *
b10100 2
b1010 -
b100 5
1/
#805000
0/
#810000
b1101 6
b100 +
b1101 *
b1101 2
b1001 -
b10100 5
1/
#815000
0/
#820000
b10000 6
b11110 +
b110000 *
b110000 2
b10010 -
b1101 5
1/
#825000
0/
#830000
b1101 6
b11010 +
b101101 *
b101101 2
b10011 -
b10000 5
1/
#835000
0/
#840000
b100 6
b11100 +
b100100 *
b100100 2
b1000 -
b1101 5
1/
#845000
0/
#850000
b11101 6
b10110 +
b11101 *
b11101 2
b111 -
b100 5
1/
#855000
0/
#860000
b10110 6
b11111 +
b110110 *
b110110 2
b10111 -
b11101 5
1/
#865000
0/
#870000
b101 6
b11011 +
b100101 *
b100101 2
b1010 -
b10110 5
1/
#875000
0/
#880000
b1100 6
b10110 +
b101100 *
b101100 2
b10110 -
b101 5
1/
#885000
0/
#890000
b11001 6
b1011 +
b11001 *
b11001 2
b1110 -
b1100 5
1/
#895000
0/
#900000
b10100 6
b11100 +
b110100 *
b110100 2
b11000 -
b11001 5
1/
#905000
0/
#910000
b11100 6
b11100 *
b11100 2
b100 +
b10100 5
1/
#915000
0/
#920000
b1110 6
b101 +
b1110 *
b1110 2
b1001 -
b11100 5
1/
#925000
0/
#930000
b11100 6
b111 +
b11100 *
b11100 2
b10101 -
b1110 5
1/
#935000
0/
#940000
b11101 6
b11101 *
b11101 2
b10110 -
b11100 5
1/
#945000
0/
#950000
b11000 6
b11000 *
b11000 2
b10 +
b11101 5
1/
#955000
0/
#960000
b1 6
b11101 +
b100001 *
b100001 2
b100 -
b11000 5
1/
#965000
0/
#970000
b11000 6
b111000 *
b111000 2
b11011 -
b1 5
1/
#975000
0/
#980000
b10000 6
b0 +
b10000 *
b10000 2
b10000 -
b11000 5
1/
#985000
0/
#990000
b11001 6
b10011 +
b11001 *
b11001 2
b110 -
b10000 5
1/
#995000
0/
#1000000
b1100 6
b0 +
b1100 *
b1100 2
b1100 -
b11001 5
1/
#1005000
0/
#1010000
08
0(
0)
0,
0.
b1100 5
1/
#1015000
0/
#1020000
0!
0&
1%
0#
1"
07
1/
