ej1/VCD/adder.vcd
$date
	Fri May  7 13:45:24 2021
$end
$version
	Icarus Verilog
$end
$timescale
	1ps
$end
$scope module top $end
$var wire 1 ! \$1 $end
$var wire 1 " \$11 $end
$var wire 1 # \$13 $end
$var wire 1 $ \$15 $end
$var wire 1 % \$17 $end
$var wire 1 & \$19 $end
$var wire 1 ' \$3 $end
$var wire 1 ( \$5 $end
$var wire 1 ) \$9 $end
$var wire 5 * a__data [4:0] $end
$var wire 1 + a__valid $end
$var wire 5 , b__data [4:0] $end
$var wire 1 - b__valid $end
$var wire 1 . clk $end
$var wire 1 / r__ready $end
$var wire 1 0 rst $end
$var wire 6 1 \$7 [5:0] $end
$var reg 1 2 a__ready $end
$var reg 1 3 b__ready $end
$var reg 6 4 r__data [5:0] $end
$var reg 6 5 \r__data$next [5:0] $end
$var reg 1 6 r__valid $end
$var reg 1 7 \r__valid$next $end
$upscope $end
$enddefinitions $end
#0
$dumpvars
07
06
b0 5
b0 4
13
12
bx 1
10
z/
1.
z-
bz ,
z+
bz *
1)
x(
x'
1&
0%
1$
1#
0"
0!
$end
#5000
0.
#10000
b111110 5
17
1'
1(
00
1+
b111110 1
b11111 *
1-
b11111 ,
1/
1.
#15000
0.
#20000
b11111 5
b11111 1
b0 *
17
1!
1%
0$
1"
0)
b111110 4
16
1.
#25000
0.
#30000
b101000 5
b10110 *
b101000 1
b10010 ,
b11111 4
1.
#35000
0.
#40000
b11110 5
b11110 *
b11110 1
b0 ,
b101000 4
1.
#45000
0.
#50000
b111 5
b101 *
b111 1
b10 ,
b11110 4
1.
#55000
0.
#60000
b100010 5
b1111 *
b100010 1
b10011 ,
b111 4
1.
#65000
0.
#70000
b100001 5
b11000 *
b100001 1
b1001 ,
b100010 4
1.
#75000
0.
#80000
b10010 5
b1100 *
b10010 1
b110 ,
b100001 4
1.
#85000
0.
#90000
b1011 5
b10 *
b1011 1
b1001 ,
b10010 4
1.
#95000
0.
#100000
b110001 5
b10010 *
b110001 1
b11111 ,
b1011 4
1.
#105000
0.
#110000
b101100 5
b10111 *
b101100 1
b10101 ,
b110001 4
1.
#115000
0.
#120000
b100111 5
b11000 *
b100111 1
b1111 ,
b101100 4
1.
#125000
0.
#130000
b101001 5
b10000 *
b101001 1
b11001 ,
b100111 4
1.
#135000
0.
#140000
b110000 5
b11110 *
b110000 1
b10010 ,
b101001 4
1.
#145000
0.
#150000
b100010 5
b11101 *
b100010 1
b101 ,
b110000 4
1.
#155000
0.
#160000
b11101 5
b100 *
b11101 1
b11001 ,
b100010 4
1.
#165000
0.
#170000
b1010 5
b1001 *
b1010 1
b1 ,
b11101 4
1.
#175000
0.
#180000
b100101 5
b1110 *
b100101 1
b10111 ,
b1010 4
1.
#185000
0.
#190000
b10001 5
b101 *
b10001 1
b1100 ,
b100101 4
1.
#195000
0.
#200000
b11111 5
b1010 *
b11111 1
b10101 ,
b10001 4
1.
#205000
0.
#210000
b11100 5
b1101 *
b11100 1
b1111 ,
b11111 4
1.
#215000
0.
#220000
b11101 5
b1001 *
b11101 1
b10100 ,
b11100 4
1.
#225000
0.
#230000
b11110 5
b11110 *
b11110 1
b0 ,
b11101 4
1.
#235000
0.
#240000
b100 5
b0 *
b100 1
b100 ,
b11110 4
1.
#245000
0.
#250000
b110000 5
b11010 *
b110000 1
b10110 ,
b100 4
1.
#255000
0.
#260000
b111000 5
b11001 *
b111000 1
b11111 ,
b110000 4
1.
#265000
0.
#270000
b101110 5
b10111 *
b101110 1
b10111 ,
b111000 4
1.
#275000
0.
#280000
b110010 5
b11001 *
b110010 1
b11001 ,
b101110 4
1.
#285000
0.
#290000
b110001 5
b11011 *
b110001 1
b10110 ,
b110010 4
1.
#295000
0.
#300000
b100100 5
b1000 *
b100100 1
b11100 ,
b110001 4
1.
#305000
0.
#310000
b11100 5
b111 *
b11100 1
b10101 ,
b100100 4
1.
#315000
0.
#320000
b100111 5
b11101 *
b100111 1
b1010 ,
b11100 4
1.
#325000
0.
#330000
b110010 5
b11111 *
b110010 1
b10011 ,
b100111 4
1.
#335000
0.
#340000
b1100 5
b110 *
b1100 1
b110 ,
b110010 4
1.
#345000
0.
#350000
b11111 5
b11111 *
b11111 1
b0 ,
b1100 4
1.
#355000
0.
#360000
b1001 5
b1 *
b1001 1
b1000 ,
b11111 4
1.
#365000
0.
#370000
b101110 5
b10000 *
b101110 1
b11110 ,
b1001 4
1.
#375000
0.
#380000
b11000 5
b10111 *
b11000 1
b1 ,
b101110 4
1.
#385000
0.
#390000
b1000 5
b11 *
b1000 1
b101 ,
b11000 4
1.
#395000
0.
#400000
b110110 5
b11011 *
b110110 1
b11011 ,
b1000 4
1.
#405000
0.
#410000
b101001 5
b101001 1
b1110 *
b110110 4
1.
#415000
0.
#420000
b100101 5
b100101 1
b10111 ,
b101001 4
1.
#425000
0.
#430000
b10111 5
b10101 *
b10111 1
b10 ,
b100101 4
1.
#435000
0.
#440000
b100110 5
b11000 *
b100110 1
b1110 ,
b10111 4
1.
#445000
0.
#450000
b101011 5
b10010 *
b101011 1
b11001 ,
b100110 4
1.
#455000
0.
#460000
b100101 5
b1111 *
b100101 1
b10110 ,
b101011 4
1.
#465000
0.
#470000
b11001 5
b1011 *
b11001 1
b1110 ,
b100101 4
1.
#475000
0.
#480000
b110001 5
b11110 *
b110001 1
b10011 ,
b11001 4
1.
#485000
0.
#490000
b101100 5
b11100 *
b101100 1
b10000 ,
b110001 4
1.
#495000
0.
#500000
b100011 5
b11000 *
b100011 1
b1011 ,
b101100 4
1.
#505000
0.
#510000
b100100 5
b10101 *
b100100 1
b1111 ,
b100011 4
1.
#515000
0.
#520000
b111 5
b110 *
b111 1
b1 ,
b100100 4
1.
#525000
0.
#530000
b100010 5
b11001 *
b100010 1
b1001 ,
b111 4
1.
#535000
0.
#540000
b100 5
b1 *
b100 1
b11 ,
b100010 4
1.
#545000
0.
#550000
b111101 5
b11110 *
b111101 1
b11111 ,
b100 4
1.
#555000
0.
#560000
b110010 5
b11011 *
b110010 1
b10111 ,
b111101 4
1.
#565000
0.
#570000
b110000 5
b10100 *
b110000 1
b11100 ,
b110010 4
1.
#575000
0.
#580000
b100111 5
b1111 *
b100111 1
b11000 ,
b110000 4
1.
#585000
0.
#590000
b100000 5
b10011 *
b100000 1
b1101 ,
b100111 4
1.
#595000
0.
#600000
b101010 5
b10111 *
b101010 1
b10011 ,
b100000 4
1.
#605000
0.
#610000
b100100 5
b10010 *
b100100 1
b10010 ,
b101010 4
1.
#615000
0.
#620000
b1101 5
b1100 *
b1101 1
b1 ,
b100100 4
1.
#625000
0.
#630000
b10000 5
b111 *
b10000 1
b1001 ,
b1101 4
1.
#635000
0.
#640000
b11101 5
b11010 *
b11101 1
b11 ,
b10000 4
1.
#645000
0.
#650000
b100000 5
b11 *
b100000 1
b11101 ,
b11101 4
1.
#655000
0.
#660000
b10000 5
b1111 *
b10000 1
b1 ,
b100000 4
1.
#665000
0.
#670000
b110000 5
b10111 *
b110000 1
b11001 ,
b10000 4
1.
#675000
0.
#680000
b11111 5
b10100 *
b11111 1
b1011 ,
b110000 4
1.
#685000
0.
#690000
b101110 5
b11110 *
b101110 1
b10000 ,
b11111 4
1.
#695000
0.
#700000
b1 5
b1 *
b1 1
b0 ,
b101110 4
1.
#705000
0.
#710000
b1110 5
b0 *
b1110 1
b1110 ,
b1 4
1.
#715000
0.
#720000
b11101 5
b101 *
b11101 1
b11000 ,
b1110 4
1.
#725000
0.
#730000
b101000 5
b11101 *
b101000 1
b1011 ,
b11101 4
1.
#735000
0.
#740000
b100011 5
b100011 1
b110 ,
b101000 4
1.
#745000
0.
#750000
b11110 5
b1000 *
b11110 1
b10110 ,
b100011 4
1.
#755000
0.
#760000
b101111 5
b10011 *
b101111 1
b11100 ,
b11110 4
1.
#765000
0.
#770000
b101010 5
b11011 *
b101010 1
b1111 ,
b101111 4
1.
#775000
0.
#780000
b100001 5
b111 *
b100001 1
b11010 ,
b101010 4
1.
#785000
0.
#790000
b1110 5
b0 *
b1110 1
b1110 ,
b100001 4
1.
#795000
0.
#800000
b11100 5
b101 *
b11100 1
b10111 ,
b1110 4
1.
#805000
0.
#810000
b100011 5
b10011 *
b100011 1
b10000 ,
b11100 4
1.
#815000
0.
#820000
b1111 *
b100011 1
b10100 ,
b100011 4
1.
#825000
0.
#830000
b1111 5
b1101 *
b1111 1
b10 ,
1.
#835000
0.
#840000
b10000 5
b10000 *
b10000 1
b0 ,
b1111 4
1.
#845000
0.
#850000
b10101 5
b1101 *
b10101 1
b1000 ,
b10000 4
1.
#855000
0.
#860000
b11000 5
b101 *
b11000 1
b10011 ,
b10101 4
1.
#865000
0.
#870000
b100110 5
b10100 *
b100110 1
b10010 ,
b11000 4
1.
#875000
0.
#880000
b11101 5
b10101 *
b11101 1
b1000 ,
b100110 4
1.
#885000
0.
#890000
b110110 5
b11011 *
b110110 1
b11011 ,
b11101 4
1.
#895000
0.
#900000
b11100 5
b100 *
b11100 1
b11000 ,
b110110 4
1.
#905000
0.
#910000
b1001 5
b1000 *
b1001 1
b1 ,
b11100 4
1.
#915000
0.
#920000
b11010 5
b10110 *
b11010 1
b100 ,
b1001 4
1.
#925000
0.
#930000
b101011 5
b11100 *
b101011 1
b1111 ,
b11010 4
1.
#935000
0.
#940000
b10011 *
b101011 1
b11000 ,
b101011 4
1.
#945000
0.
#950000
b111000 5
b11110 *
b111000 1
b11010 ,
1.
#955000
0.
#960000
b100001 5
b1110 *
b100001 1
b10011 ,
b111000 4
1.
#965000
0.
#970000
b11111 5
b1011 *
b11111 1
b10100 ,
b100001 4
1.
#975000
0.
#980000
b10010 5
b111 *
b10010 1
b1011 ,
b11111 4
1.
#985000
0.
#990000
b100001 5
b1100 *
b100001 1
b10101 ,
b10010 4
1.
#995000
0.
#1000000
b11000 5
b10001 *
b11000 1
b111 ,
b100001 4
1.
#1005000
0.
#1010000
07
0'
0(
0+
0-
b11000 4
1.
#1015000
0.
#1020000
0!
0%
1$
0"
1)
06
1.
