ej1/VCD/adder.vcd
$date
	Mon May 10 12:04:58 2021
$end
$version
	Icarus Verilog
$end
$timescale
	1ps
$end
$scope module top $end
$var wire 1 ! \$1 $end
$var wire 1 " \$11 $end
$var wire 1 # \$13 $end
$var wire 6 $ \$15 [5:0] $end
$var wire 1 % \$18 $end
$var wire 1 & \$20 $end
$var wire 1 ' \$22 $end
$var wire 1 ( \$24 $end
$var wire 1 ) \$26 $end
$var wire 1 * \$28 $end
$var wire 1 + \$3 $end
$var wire 1 , \$5 $end
$var wire 1 - \$7 $end
$var wire 1 . \$9 $end
$var wire 5 / a__data [4:0] $end
$var wire 1 0 a__valid $end
$var wire 5 1 b__data [4:0] $end
$var wire 1 2 b__valid $end
$var wire 1 3 clk $end
$var wire 1 4 r__ready $end
$var wire 1 5 rst $end
$var wire 6 6 \$16 [5:0] $end
$var reg 1 7 a__ready $end
$var reg 1 8 b__ready $end
$var reg 5 9 r__data [4:0] $end
$var reg 5 : \r__data$next [4:0] $end
$var reg 1 ; r__valid $end
$var reg 1 < \r__valid$next $end
$upscope $end
$enddefinitions $end
#0
$dumpvars
0<
0;
b0 :
b0 9
18
17
bx 6
15
z4
13
z2
bz 1
z0
bz /
x.
x-
x,
x+
1*
0)
1(
1'
0&
1%
bx $
x#
x"
0!
$end
#5000
03
#10000
b11110 :
1<
1#
1-
1.
1+
1"
1,
05
10
b111110 $
b111110 6
b11111 /
12
b11111 1
14
13
#15000
03
#20000
b0 :
b1010 /
b100000 $
b100000 6
b10110 1
1<
1)
0(
1&
1!
0%
b11110 9
1;
13
#25000
03
#30000
b10101 :
b11001 /
b110101 $
b110101 6
b11100 1
b0 9
13
#35000
03
#40000
b110 :
b1000 /
b100110 $
b100110 6
b11110 1
b10101 9
13
#45000
03
#50000
b1111 :
b1010 /
b1111 $
b1111 6
b101 1
b110 9
13
#55000
03
#60000
b10111 :
b11 /
b10111 $
b10111 6
b10100 1
b1111 9
13
#65000
03
#70000
b111 :
b11101 /
b100111 $
b100111 6
b1010 1
b10111 9
13
#75000
03
#80000
b1000 :
b101 /
b1000 $
b1000 6
b11 1
b111 9
13
#85000
03
#90000
b10111 :
b11010 /
b110111 $
b110111 6
b11101 1
b1000 9
13
#95000
03
#100000
b111 :
b110 /
b111 $
b111 6
b1 1
b10111 9
13
#105000
03
#110000
b10100 :
b10110 /
b110100 $
b110100 6
b11110 1
b111 9
13
#115000
03
#120000
b1100 :
b11111 /
b101100 $
b101100 6
b1101 1
b10100 9
13
#125000
03
#130000
b10111 :
b11101 /
b110111 $
b110111 6
b11010 1
b1100 9
13
#135000
03
#140000
b10010 :
b111 /
b10010 $
b10010 6
b1011 1
b10111 9
13
#145000
03
#150000
b11011 :
b10 /
b11011 $
b11011 6
b11001 1
b10010 9
13
#155000
03
#160000
b10000 :
b10000 $
b10000 6
b1110 1
b11011 9
13
#165000
03
#170000
b1000 :
b10111 /
b101000 $
b101000 6
b10001 1
b10000 9
13
#175000
03
#180000
b11110 :
b11000 /
b11110 $
b11110 6
b110 1
b1000 9
13
#185000
03
#190000
b11 :
b1110 /
b100011 $
b100011 6
b10101 1
b11110 9
13
#195000
03
#200000
b10111 :
b10110 /
b10111 $
b10111 6
b1 1
b11 9
13
#205000
03
#210000
b10100 :
b11111 /
b110100 $
b110100 6
b10101 1
b10111 9
13
#215000
03
#220000
b1110 :
b10010 /
b101110 $
b101110 6
b11100 1
b10100 9
13
#225000
03
#230000
b11010 :
b10000 /
b11010 $
b11010 6
b1010 1
b1110 9
13
#235000
03
#240000
b10011 :
b100 /
b10011 $
b10011 6
b1111 1
b11010 9
13
#245000
03
#250000
b101 :
b11111 /
b100101 $
b100101 6
b110 1
b10011 9
13
#255000
03
#260000
b10100 :
b11001 /
b110100 $
b110100 6
b11011 1
b101 9
13
#265000
03
#270000
b1000 :
b11101 /
b101000 $
b101000 6
b1011 1
b10100 9
13
#275000
03
#280000
b11110 :
b11100 /
b11110 $
b11110 6
b10 1
b1000 9
13
#285000
03
#290000
b11000 :
b11110 /
b111000 $
b111000 6
b11010 1
b11110 9
13
#295000
03
#300000
b110 :
b10 /
b110 $
b110 6
b100 1
b11000 9
13
#305000
03
#310000
b10001 :
b10101 /
b110001 $
b110001 6
b11100 1
b110 9
13
#315000
03
#320000
b11000 :
b0 /
b11000 $
b11000 6
b11000 1
b10001 9
13
#325000
03
#330000
b101 :
b11 /
b101 $
b101 6
b10 1
b11000 9
13
#335000
03
#340000
b11101 :
b1011 /
b11101 $
b11101 6
b10010 1
b101 9
13
#345000
03
#350000
b11011 :
b11100 /
b111011 $
b111011 6
b11111 1
b11101 9
13
#355000
03
#360000
b10 :
b1011 /
b100010 $
b100010 6
b10111 1
b11011 9
13
#365000
03
#370000
b111 :
b1100 /
b100111 $
b100111 6
b11011 1
b10 9
13
#375000
03
#380000
b110 :
b1 /
b110 $
b110 6
b101 1
b111 9
13
#385000
03
#390000
b1110 :
b0 /
b1110 $
b1110 6
b1110 1
b110 9
13
#395000
03
#400000
b1111 :
b11111 /
b101111 $
b101111 6
b10000 1
b1110 9
13
#405000
03
#410000
b1 :
b11 /
b100001 $
b100001 6
b11110 1
b1111 9
13
#415000
03
#420000
b10011 :
b111 /
b10011 $
b10011 6
b1100 1
b1 9
13
#425000
03
#430000
b11110 :
b1111 /
b11110 $
b11110 6
b1111 1
b10011 9
13
#435000
03
#440000
b11011 :
b10 /
b11011 $
b11011 6
b11001 1
b11110 9
13
#445000
03
#450000
b10010 :
b11100 /
b110010 $
b110010 6
b10110 1
b11011 9
13
#455000
03
#460000
b1000 :
b100 /
b1000 $
b1000 6
b100 1
b10010 9
13
#465000
03
#470000
b10101 :
b11110 /
b110101 $
b110101 6
b10111 1
b1000 9
13
#475000
03
#480000
b1111 :
b10011 /
b101111 $
b101111 6
b11100 1
b10101 9
13
#485000
03
#490000
b11000 :
b10101 /
b11000 $
b11000 6
b11 1
b1111 9
13
#495000
03
#500000
b10001 :
b110 /
b10001 $
b10001 6
b1011 1
b11000 9
13
#505000
03
#510000
b101 :
b1101 /
b100101 $
b100101 6
b11000 1
b10001 9
13
#515000
03
#520000
b111 :
b11100 /
b100111 $
b100111 6
b1011 1
b101 9
13
#525000
03
#530000
b10000 :
b1110 /
b10000 $
b10000 6
b10 1
b111 9
13
#535000
03
#540000
b1111 :
b110 /
b1111 $
b1111 6
b1001 1
b10000 9
13
#545000
03
#550000
b11101 :
b11101 /
b11101 $
b11101 6
b0 1
b1111 9
13
#555000
03
#560000
b10011 :
b11011 /
b110011 $
b110011 6
b11000 1
b11101 9
13
#565000
03
#570000
b11011 :
b11011 $
b11011 6
b0 1
b10011 9
13
#575000
03
#580000
b10101 :
b110101 $
b110101 6
b11010 1
b11011 9
13
#585000
03
#590000
b1011 :
b1000 /
b1011 $
b1011 6
b11 1
b10101 9
13
#595000
03
#600000
b11011 :
b10010 /
b11011 $
b11011 6
b1001 1
b1011 9
13
#605000
03
#610000
b111 :
b1110 /
b100111 $
b100111 6
b11001 1
b11011 9
13
#615000
03
#620000
b11111 :
b11111 $
b11111 6
b10001 1
b111 9
13
#625000
03
#630000
b1011 :
b0 /
b1011 $
b1011 6
b1011 1
b11111 9
13
#635000
03
#640000
b1001 :
b10110 /
b101001 $
b101001 6
b10011 1
b1011 9
13
#645000
03
#650000
b11000 :
b100 /
b11000 $
b11000 6
b10100 1
b1001 9
13
#655000
03
#660000
b1 :
b11110 /
b100001 $
b100001 6
b11 1
b11000 9
13
#665000
03
#670000
b1011 /
b100001 $
b100001 6
b10110 1
b1 9
13
#675000
03
#680000
b1110 /
b100001 $
b100001 6
b10011 1
13
#685000
03
#690000
b10111 :
b11011 /
b110111 $
b110111 6
b11100 1
13
#695000
03
#700000
b11000 :
b1010 /
b11000 $
b11000 6
b1110 1
b10111 9
13
#705000
03
#710000
b1111 :
b10011 /
b101111 $
b101111 6
b11100 1
b11000 9
13
#715000
03
#720000
b11101 :
b10 /
b11101 $
b11101 6
b11011 1
b1111 9
13
#725000
03
#730000
b11111 :
b101 /
b11111 $
b11111 6
b11010 1
b11101 9
13
#735000
03
#740000
b10001 :
b1100 /
b10001 $
b10001 6
b101 1
b11111 9
13
#745000
03
#750000
b111 :
b1011 /
b100111 $
b100111 6
b11100 1
b10001 9
13
#755000
03
#760000
b1101 :
b11011 /
b101101 $
b101101 6
b10010 1
b111 9
13
#765000
03
#770000
b11100 :
b111 /
b11100 $
b11100 6
b10101 1
b1101 9
13
#775000
03
#780000
b11111 :
b110 /
b11111 $
b11111 6
b11001 1
b11100 9
13
#785000
03
#790000
b1 /
b11111 $
b11111 6
b11110 1
b11111 9
13
#795000
03
#800000
b1100 :
b1100 /
b1100 $
b1100 6
b0 1
13
#805000
03
#810000
b1111 :
b111 /
b1111 $
b1111 6
b1000 1
b1100 9
13
#815000
03
#820000
b101 :
b11100 /
b100101 $
b100101 6
b1001 1
b1111 9
13
#825000
03
#830000
b10110 :
b100 /
b10110 $
b10110 6
b10010 1
b101 9
13
#835000
03
#840000
b11111 :
b10100 /
b11111 $
b11111 6
b1011 1
b10110 9
13
#845000
03
#850000
b11010 :
b10001 /
b11010 $
b11010 6
b1001 1
b11111 9
13
#855000
03
#860000
b11101 :
b11001 /
b11101 $
b11101 6
b100 1
b11010 9
13
#865000
03
#870000
b1111 :
b100 /
b1111 $
b1111 6
b1011 1
b11101 9
13
#875000
03
#880000
b110 /
b1111 $
b1111 6
b1001 1
b1111 9
13
#885000
03
#890000
b10101 :
b10010 /
b10101 $
b10101 6
b11 1
13
#895000
03
#900000
b100 :
b111 /
b100100 $
b100100 6
b11101 1
b10101 9
13
#905000
03
#910000
b10000 :
b1011 /
b10000 $
b10000 6
b101 1
b100 9
13
#915000
03
#920000
b1101 :
b11111 /
b101101 $
b101101 6
b1110 1
b10000 9
13
#925000
03
#930000
b10101 :
b1 /
b10101 $
b10101 6
b10100 1
b1101 9
13
#935000
03
#940000
b11110 :
b10100 /
b11110 $
b11110 6
b1010 1
b10101 9
13
#945000
03
#950000
b11001 :
b1100 /
b11001 $
b11001 6
b1101 1
b11110 9
13
#955000
03
#960000
b1 :
b11010 /
b100001 $
b100001 6
b111 1
b11001 9
13
#965000
03
#970000
b10000 :
b1110 /
b10000 $
b10000 6
b10 1
b1 9
13
#975000
03
#980000
b100 :
b0 /
b100 $
b100 6
b100 1
b10000 9
13
#985000
03
#990000
b10111 :
b10 /
b10111 $
b10111 6
b10101 1
b100 9
13
#995000
03
#1000000
b1000 :
b10110 /
b101000 $
b101000 6
b10010 1
b10111 9
13
#1005000
03
#1010000
0<
0#
0-
0.
0+
0"
0,
00
02
b1000 9
13
#1015000
03
#1020000
0)
1(
0&
0!
1%
0;
13
