ej1/VCD/incrementador.vcd
$date
	Fri May  7 20:54:19 2021
$end
$version
	Icarus Verilog
$end
$timescale
	1ps
$end
$scope module top $end
$var wire 1 ! \$1 $end
$var wire 1 " \$10 $end
$var wire 1 # \$12 $end
$var wire 1 $ \$14 $end
$var wire 1 % \$3 $end
$var wire 1 & \$5 $end
$var wire 8 ' \$7 [7:0] $end
$var wire 7 ( a__data [6:0] $end
$var wire 1 ) a__valid $end
$var wire 1 * clk $end
$var wire 1 + r__ready $end
$var wire 1 , rst $end
$var wire 8 - \$8 [7:0] $end
$var reg 1 . a__ready $end
$var reg 7 / r__data [6:0] $end
$var reg 7 0 \r__data$next [6:0] $end
$var reg 1 1 r__valid $end
$var reg 1 2 \r__valid$next $end
$upscope $end
$enddefinitions $end
#0
$dumpvars
02
01
b0 0
b0 /
1.
bx -
1,
z+
1*
z)
bz (
bx '
x&
x%
1$
0#
1"
0!
$end
#5000
0*
#10000
b101111 0
12
1%
1&
0,
1)
b101111 '
b101111 -
b101110 (
1+
1*
#15000
0*
#20000
b0 0
b10000000 '
b10000000 -
b1111111 (
12
1!
1#
0"
b101111 /
11
1*
#25000
0*
#30000
b1010101 0
b1010101 '
b1010101 -
b1010100 (
b0 /
1*
#35000
0*
#40000
b1001000 0
b1001000 '
b1001000 -
b1000111 (
b1010101 /
1*
#45000
0*
#50000
b110001 0
b110001 '
b110001 -
b110000 (
b1001000 /
1*
#55000
0*
#60000
b1011 0
b1011 '
b1011 -
b1010 (
b110001 /
1*
#65000
0*
#70000
b100001 0
b100001 '
b100001 -
b100000 (
b1011 /
1*
#75000
0*
#80000
b1100011 0
b1100011 '
b1100011 -
b1100010 (
b100001 /
1*
#85000
0*
#90000
b111001 0
b111001 '
b111001 -
b111000 (
b1100011 /
1*
#95000
0*
#100000
b1111111 0
b1111111 '
b1111111 -
b1111110 (
b111001 /
1*
#105000
0*
#110000
b1111001 0
b1111001 '
b1111001 -
b1111000 (
b1111111 /
1*
#115000
0*
#120000
b1010100 0
b1010100 '
b1010100 -
b1010011 (
b1111001 /
1*
#125000
0*
#130000
b1010110 0
b1010110 '
b1010110 -
b1010101 (
b1010100 /
1*
#135000
0*
#140000
b11111 0
b11111 '
b11111 -
b11110 (
b1010110 /
1*
#145000
0*
#150000
b1110010 0
b1110010 '
b1110010 -
b1110001 (
b11111 /
1*
#155000
0*
#160000
b111111 0
b111111 '
b111111 -
b111110 (
b1110010 /
1*
#165000
0*
#170000
b1100101 0
b1100101 '
b1100101 -
b1100100 (
b111111 /
1*
#175000
0*
#180000
b1001 0
b1001 '
b1001 -
b1000 (
b1100101 /
1*
#185000
0*
#190000
b1000110 0
b1000110 '
b1000110 -
b1000101 (
b1001 /
1*
#195000
0*
#200000
b10100 0
b10100 '
b10100 -
b10011 (
b1000110 /
1*
#205000
0*
#210000
b101110 0
b101110 '
b101110 -
b101101 (
b10100 /
1*
#215000
0*
#220000
b1101010 0
b1101010 '
b1101010 -
b1101001 (
b101110 /
1*
#225000
0*
#230000
b1111001 0
b1111001 '
b1111001 -
b1111000 (
b1101010 /
1*
#235000
0*
#240000
b101000 0
b101000 '
b101000 -
b100111 (
b1111001 /
1*
#245000
0*
#250000
b100010 0
b100010 '
b100010 -
b100001 (
b101000 /
1*
#255000
0*
#260000
b1100010 0
b1100010 '
b1100010 -
b1100001 (
b100010 /
1*
#265000
0*
#270000
b1 0
b1 '
b1 -
b0 (
b1100010 /
1*
#275000
0*
#280000
b100 0
b100 '
b100 -
b11 (
b1 /
1*
#285000
0*
#290000
b1100011 0
b1100011 '
b1100011 -
b1100010 (
b100 /
1*
#295000
0*
#300000
b11 0
b11 '
b11 -
b10 (
b1100011 /
1*
#305000
0*
#310000
b1110010 0
b1110010 '
b1110010 -
b1110001 (
b11 /
1*
#315000
0*
#320000
b1000001 0
b1000001 '
b1000001 -
b1000000 (
b1110010 /
1*
#325000
0*
#330000
b110 0
b110 '
b110 -
b101 (
b1000001 /
1*
#335000
0*
#340000
b1010011 0
b1010011 '
b1010011 -
b1010010 (
b110 /
1*
#345000
0*
#350000
b1100101 0
b1100101 '
b1100101 -
b1100100 (
b1010011 /
1*
#355000
0*
#360000
b110101 0
b110101 '
b110101 -
b110100 (
b1100101 /
1*
#365000
0*
#370000
b111100 0
b111100 '
b111100 -
b111011 (
b110101 /
1*
#375000
0*
#380000
b1011001 0
b1011001 '
b1011001 -
b1011000 (
b111100 /
1*
#385000
0*
#390000
b1111101 0
b1111101 '
b1111101 -
b1111100 (
b1011001 /
1*
#395000
0*
#400000
b1000 0
b1000 '
b1000 -
b111 (
b1111101 /
1*
#405000
0*
#410000
b1001000 0
b1001000 '
b1001000 -
b1000111 (
b1000 /
1*
#415000
0*
#420000
b101101 0
b101101 '
b101101 -
b101100 (
b1001000 /
1*
#425000
0*
#430000
b1011011 0
b1011011 '
b1011011 -
b1011010 (
b101101 /
1*
#435000
0*
#440000
b1101011 0
b1101011 '
b1101011 -
b1101010 (
b1011011 /
1*
#445000
0*
#450000
b1000110 0
b1000110 '
b1000110 -
b1000101 (
b1101011 /
1*
#455000
0*
#460000
b111111 0
b111111 '
b111111 -
b111110 (
b1000110 /
1*
#465000
0*
#470000
b1001000 0
b1001000 '
b1001000 -
b1000111 (
b111111 /
1*
#475000
0*
#480000
b111101 0
b111101 '
b111101 -
b111100 (
b1001000 /
1*
#485000
0*
#490000
b1000111 0
b1000111 '
b1000111 -
b1000110 (
b111101 /
1*
#495000
0*
#500000
b1111100 0
b1111100 '
b1111100 -
b1111011 (
b1000111 /
1*
#505000
0*
#510000
b1011010 0
b1011010 '
b1011010 -
b1011001 (
b1111100 /
1*
#515000
0*
#520000
b1001010 0
b1001010 '
b1001010 -
b1001001 (
b1011010 /
1*
#525000
0*
#530000
b111100 0
b111100 '
b111100 -
b111011 (
b1001010 /
1*
#535000
0*
#540000
b1110110 0
b1110110 '
b1110110 -
b1110101 (
b111100 /
1*
#545000
0*
#550000
b1001111 0
b1001111 '
b1001111 -
b1001110 (
b1110110 /
1*
#555000
0*
#560000
b111110 0
b111110 '
b111110 -
b111101 (
b1001111 /
1*
#565000
0*
#570000
b1111111 0
b1111111 '
b1111111 -
b1111110 (
b111110 /
1*
#575000
0*
#580000
b1101101 0
b1101101 '
b1101101 -
b1101100 (
b1111111 /
1*
#585000
0*
#590000
b10 0
b10 '
b10 -
b1 (
b1101101 /
1*
#595000
0*
#600000
b1101 0
b1101 '
b1101 -
b1100 (
b10 /
1*
#605000
0*
#610000
b1010001 0
b1010001 '
b1010001 -
b1010000 (
b1101 /
1*
#615000
0*
#620000
b1011001 0
b1011001 '
b1011001 -
b1011000 (
b1010001 /
1*
#625000
0*
#630000
b1001001 0
b1001001 '
b1001001 -
b1001000 (
b1011001 /
1*
#635000
0*
#640000
b1010000 0
b1010000 '
b1010000 -
b1001111 (
b1001001 /
1*
#645000
0*
#650000
b101110 0
b101110 '
b101110 -
b101101 (
b1010000 /
1*
#655000
0*
#660000
b1001 0
b1001 '
b1001 -
b1000 (
b101110 /
1*
#665000
0*
#670000
b1010011 0
b1010011 '
b1010011 -
b1010010 (
b1001 /
1*
#675000
0*
#680000
b1011010 0
b1011010 '
b1011010 -
b1011001 (
b1010011 /
1*
#685000
0*
#690000
b1110000 0
b1110000 '
b1110000 -
b1101111 (
b1011010 /
1*
#695000
0*
#700000
b1010011 0
b1010011 '
b1010011 -
b1010010 (
b1110000 /
1*
#705000
0*
#710000
b1111001 0
b1111001 '
b1111001 -
b1111000 (
b1010011 /
1*
#715000
0*
#720000
b11111 0
b11111 '
b11111 -
b11110 (
b1111001 /
1*
#725000
0*
#730000
b1011100 0
b1011100 '
b1011100 -
b1011011 (
b11111 /
1*
#735000
0*
#740000
b1011 0
b1011 '
b1011 -
b1010 (
b1011100 /
1*
#745000
0*
#750000
b111111 0
b111111 '
b111111 -
b111110 (
b1011 /
1*
#755000
0*
#760000
b1000000 0
b1000000 '
b1000000 -
b111111 (
b111111 /
1*
#765000
0*
#770000
b100100 0
b100100 '
b100100 -
b100011 (
b1000000 /
1*
#775000
0*
#780000
b1000011 0
b1000011 '
b1000011 -
b1000010 (
b100100 /
1*
#785000
0*
#790000
b11110 0
b11110 '
b11110 -
b11101 (
b1000011 /
1*
#795000
0*
#800000
b101001 0
b101001 '
b101001 -
b101000 (
b11110 /
1*
#805000
0*
#810000
b110 0
b110 '
b110 -
b101 (
b101001 /
1*
#815000
0*
#820000
b101001 0
b101001 '
b101001 -
b101000 (
b110 /
1*
#825000
0*
#830000
b1011001 0
b1011001 '
b1011001 -
b1011000 (
b101001 /
1*
#835000
0*
#840000
b11110 0
b11110 '
b11110 -
b11101 (
b1011001 /
1*
#845000
0*
#850000
b101010 0
b101010 '
b101010 -
b101001 (
b11110 /
1*
#855000
0*
#860000
b100100 0
b100100 '
b100100 -
b100011 (
b101010 /
1*
#865000
0*
#870000
b1111001 0
b1111001 '
b1111001 -
b1111000 (
b100100 /
1*
#875000
0*
#880000
b1110001 0
b1110001 '
b1110001 -
b1110000 (
b1111001 /
1*
#885000
0*
#890000
b1011100 0
b1011100 '
b1011100 -
b1011011 (
b1110001 /
1*
#895000
0*
#900000
b1010110 0
b1010110 '
b1010110 -
b1010101 (
b1011100 /
1*
#905000
0*
#910000
b111011 0
b111011 '
b111011 -
b111010 (
b1010110 /
1*
#915000
0*
#920000
b10110 0
b10110 '
b10110 -
b10101 (
b111011 /
1*
#925000
0*
#930000
b111100 0
b111100 '
b111100 -
b111011 (
b10110 /
1*
#935000
0*
#940000
b101101 0
b101101 '
b101101 -
b101100 (
b111100 /
1*
#945000
0*
#950000
b1010 0
b1010 '
b1010 -
b1001 (
b101101 /
1*
#955000
0*
#960000
b1101110 0
b1101110 '
b1101110 -
b1101101 (
b1010 /
1*
#965000
0*
#970000
b1100001 0
b1100001 '
b1100001 -
b1100000 (
b1101110 /
1*
#975000
0*
#980000
b110100 0
b110100 '
b110100 -
b110011 (
b1100001 /
1*
#985000
0*
#990000
b1001011 0
b1001011 '
b1001011 -
b1001010 (
b110100 /
1*
#995000
0*
#1000000
b100110 0
b100110 '
b100110 -
b100101 (
b1001011 /
1*
#1005000
0*
#1010000
02
0%
0&
0)
b100110 /
1*
#1015000
0*
#1020000
0!
0#
1"
01
1*
